-------------------------------------------------------------------------------
Test set: com.bharatmehta.charger.web.transferobject.ChargingStationMapperTest
-------------------------------------------------------------------------------
Tests run: 2, Failures: 0, Errors: 0, Skipped: 0, Time elapsed: 5.121 s - in com.bharatmehta.charger.web.transferobject.ChargingStationMapperTest
