-------------------------------------------------------------------------------
Test set: com.bharatmehta.charger.service.ChargingStationServiceIntegrationTest
-------------------------------------------------------------------------------
Tests run: 7, Failures: 0, Errors: 0, Skipped: 0, Time elapsed: 0.13 s - in com.bharatmehta.charger.service.ChargingStationServiceIntegrationTest
